…
# table1
# > # A tibble: 6 x 4
# >       country  year  cases population
# >         <chr> <int>  <int>      <int>
# > 1 Afghanistan  1999    745   19987071
# > 2 Afghanistan  2000   2666   20595360
# > 3      Brazil  1999  37737  172006362
# > 4      Brazil  2000  80488  174504898
# > 5       China  1999 212258 1272915272
# > 6       China  2000 213766 1280428583

table1 is in tidy format. The 4 variables are the columns and each observation is a row.

# table2
#> # A tibble: 12 x 4
#>       country  year       type     count
#>         <chr> <int>      <chr>     <int>
#> 1 Afghanistan  1999      cases       745
#> 2 Afghanistan  1999 population  19987071
#> 3 Afghanistan  2000      cases      2666
#> 4 Afghanistan  2000 population  20595360
#> 5      Brazil  1999      cases     37737
#> 6      Brazil  1999 population 172006362
#> # ... with 6 more rows
…
Compare and contrast the fill arguments to spread() and complete().

spread() will replace NA with whatever is specified in fill

complete() A named list that for each variable supplies a single value to use instead of NA for missing combinations. Like with spread() if specified will replace both explicit and implicit NA

What does the direction argument to fill() do?

Changes which direction to use for the previous entry, default to down.

12.6 Case Study

who

## # A tibble: 7,240 x 60
##    country     iso2  iso3   year new_sp_m014 new_sp_m1524 new_sp_m2534
##    <chr>       <chr> <chr> <int>       <int>        <int>        <int>
##  1 Afghanistan AF    AFG    1980          NA           NA           NA
##  2 Afghanistan AF    AFG    1981          NA           NA           NA
##  3 Afghanistan AF    AFG    1982          NA           NA           NA
##  4 Afghanistan AF    AFG    1983          NA           NA           NA
##  5 Afghanistan AF    AFG    1984          NA           NA           NA
##  6 Afghanistan AF    AFG    1985          NA           NA           NA
##  7 Afghanistan AF    AFG    1986          NA           NA           NA
##  8 Afghanistan AF    AFG    1987          NA           NA           NA
##  9 Afghanistan AF    AFG    1988          NA           NA           NA
## 10 Afghanistan AF    AFG    1989          NA           NA           NA
## # ... with 7,230 more rows, and 53 more variables: new_sp_m3544 <int>,
## #   new_sp_m4554 <int>, new_sp_m5564 <int>, new_sp_m65 <int>,
## #   new_sp_f014 <int>, new_sp_f1524 <int>, new_sp_f2534 <int>,
## #   new_sp_f3544 <int>, new_sp_f4554 <int>, new_sp_f5564 <int>,
## #   new_sp_f65 <int>, new_sn_m014 <int>, new_sn_m1524 <int>,
## #   new_sn_m2534 <int>, new_sn_m3544 <int>, new_sn_m4554 <int>,
## #   new_sn_m5564 <int>, new_sn_m65 <int>, new_sn_f014 <int>,
## #   new_sn_f1524 <int>, new_sn_f2534 <int>, new_sn_f3544 <int>,
## #   new_sn_f4554 <int>, new_sn_f5564 <int>, new_sn_f65 <int>,
## #   new_ep_m014 <int>, new_ep_m1524 <int>, new_ep_m2534 <int>,
## #   new_ep_m3544 <int>, new_ep_m4554 <int>, new_ep_m5564 <int>,
## #   new_ep_m65 <int>, new_ep_f014 <int>, new_ep_f1524 <int>,
## #   new_ep_f2534 <int>, new_ep_f3544 <int>, new_ep_f4554 <int>,
## #   new_ep_f5564 <int>, new_ep_f65 <int>, newrel_m014 <int>,
## #   newrel_m1524 <int>, newrel_m2534 <int>, newrel_m3544 <int>,
## #   newrel_m4554 <int>, newrel_m5564 <int>, newrel_m65 <int>,
## #   newrel_f014 <int>, newrel_f1524 <int>, newrel_f2534 <int>,
## #   newrel_f3544 <int>, newrel_f4554 <int>, newrel_f5564 <int>,
## #   newrel_f65 <int>

(who1 <- who %>% 
        gather(new_sp_m014:newrel_f65, key = "key", value = "cases", na.rm = TRUE))

## # A tibble: 76,046 x 6
##    country     iso2  iso3   year key         cases
##  * <chr>       <chr> <chr> <int> <chr>       <int>
##  1 Afghanistan AF    AFG    1997 new_sp_m014     0
##  2 Afghanistan AF    AFG    1998 new_sp_m014    30
##  3 Afghanistan AF    AFG    1999 new_sp_m014     8
##  4 Afghanistan AF    AFG    2000 new_sp_m014    52
##  5 Afghanistan AF    AFG    2001 new_sp_m014   129
##  6 Afghanistan AF    AFG    2002 new_sp_m014    90
##  7 Afghanistan AF    AFG    2003 new_sp_m014   127
##  8 Afghanistan AF    AFG    2004 new_sp_m014   139
##  9 Afghanistan AF    AFG    2005 new_sp_m014   151
## 10 Afghanistan AF    AFG    2006 new_sp_m014   193
## # ... with 76,036 more rows

(who2 <- who1 %>% 
  mutate(key = stringr::str_replace(key, "newrel", "new_rel")))

## # A tibble: 76,046 x 6
##    country     iso2  iso3   year key         cases
##    <chr>       <chr> <chr> <int> <chr>       <int>
##  1 Afghanistan AF    AFG    1997 new_sp_m014     0
##  2 Afghanistan AF    AFG    1998 new_sp_m014    30
##  3 Afghanistan AF    AFG    1999 new_sp_m014     8
##  4 Afghanistan AF    AFG    2000 new_sp_m014    52
##  5 Afghanistan AF    AFG    2001 new_sp_m014   129
##  6 Afghanistan AF    AFG    2002 new_sp_m014    90
##  7 Afghanistan AF    AFG    2003 new_sp_m014   127
##  8 Afghanistan AF    AFG    2004 new_sp_m014   139
##  9 Afghanistan AF    AFG    2005 new_sp_m014   151
## 10 Afghanistan AF    AFG    2006 new_sp_m014   193
## # ... with 76,036 more rows

(who3 <- who2 %>% 
  separate(key, c("new", "type", "sexage"), sep = "_"))

## # A tibble: 76,046 x 8
##    country     iso2  iso3   year new   type  sexage cases
##    <chr>       <chr> <chr> <int> <chr> <chr> <chr>  <int>
##  1 Afghanistan AF    AFG    1997 new   sp    m014       0
##  2 Afghanistan AF    AFG    1998 new   sp    m014      30
##  3 Afghanistan AF    AFG    1999 new   sp    m014       8
##  4 Afghanistan AF    AFG    2000 new   sp    m014      52
##  5 Afghanistan AF    AFG    2001 new   sp    m014     129
##  6 Afghanistan AF    AFG    2002 new   sp    m014      90
##  7 Afghanistan AF    AFG    2003 new   sp    m014     127
##  8 Afghanistan AF    AFG    2004 new   sp    m014     139
##  9 Afghanistan AF    AFG    2005 new   sp    m014     151
## 10 Afghanistan AF    AFG    2006 new   sp    m014     193
## # ... with 76,036 more rows

(who4 <- who3 %>% 
  select(-new, -iso2, -iso3))

## # A tibble: 76,046 x 5
##    country      year type  sexage cases
##    <chr>       <int> <chr> <chr>  <int>
##  1 Afghanistan  1997 sp    m014       0
##  2 Afghanistan  1998 sp    m014      30
##  3 Afghanistan  1999 sp    m014       8
##  4 Afghanistan  2000 sp    m014      52
##  5 Afghanistan  2001 sp    m014     129
##  6 Afghanistan  2002 sp    m014      90
##  7 Afghanistan  2003 sp    m014     127
##  8 Afghanistan  2004 sp    m014     139
##  9 Afghanistan  2005 sp    m014     151
## 10 Afghanistan  2006 sp    m014     193
## # ... with 76,036 more rows

(who5 <- who4 %>% 
  separate(sexage, c("sex", "age"), sep = 1))

## # A tibble: 76,046 x 6
##    country      year type  sex   age   cases
##    <chr>       <int> <chr> <chr> <chr> <int>
##  1 Afghanistan  1997 sp    m     014       0
##  2 Afghanistan  1998 sp    m     014      30
##  3 Afghanistan  1999 sp    m     014       8
##  4 Afghanistan  2000 sp    m     014      52
##  5 Afghanistan  2001 sp    m     014     129
##  6 Afghanistan  2002 sp    m     014      90
##  7 Afghanistan  2003 sp    m     014     127
##  8 Afghanistan  2004 sp    m     014     139
##  9 Afghanistan  2005 sp    m     014     151
## 10 Afghanistan  2006 sp    m     014     193
## # ... with 76,036 more rows

12.6.1 Exercises

In this case study I set na.rm = TRUE just to make it easier to check that we had the correct values. Is this reasonable? Think about how missing values are represented in this dataset. Are there implicit missing values? What’s the difference between an NA and zero?

In this data NA is assigned to values when there wasn’t a recording for that case in a particular year. A 0 is assigned if the data was recorded but there were no cases. Since there are no implicit missing values it is okay to drop NA.

who %>% 
        count(country) %>% 
        arrange(n) 

## # A tibble: 219 x 2
##    country                               n
##    <chr>                             <int>
##  1 South Sudan                           3
##  2 Bonaire, Saint Eustatius and Saba     4
##  3 Curacao                               4
##  4 Sint Maarten (Dutch part)             4
##  5 Montenegro                            9
##  6 Serbia                                9
##  7 Timor-Leste                          12
##  8 Serbia & Montenegro                  25
##  9 Netherlands Antilles                 30
## 10 Afghanistan                          34
## # ... with 209 more rows
…
What happens if you neglect the mutate() step? (mutate(key = stringr::str_replace(key, “newrel”, “new_rel”)))

It doesn’t know to separate the values stored as newrel and ends up giving a too few values warning.

who %>%
  gather(code, value, new_sp_m014:newrel_f65, na.rm = TRUE) %>% 
  separate(code, c("new", "var", "sexage")) %>% 
  select(-new, -iso2, -iso3) %>% 
  separate(sexage, c("sex", "age"), sep = 1)

## Warning: Expected 3 pieces. Missing pieces filled with `NA` in 2580 rows
## [73467, 73468, 73469, 73470, 73471, 73472, 73473, 73474, 73475, 73476,
## 73477, 73478, 73479, 73480, 73481, 73482, 73483, 73484, 73485, 73486, ...].

## # A tibble: 76,046 x 6
##    country      year var   sex   age   value
##  * <chr>       <int> <chr> <chr> <chr> <int>
##  1 Afghanistan  1997 sp    m     014       0
##  2 Afghanistan  1998 sp    m     014      30
##  3 Afghanistan  1999 sp    m     014       8
##  4 Afghanistan  2000 sp    m     014      52
##  5 Afghanistan  2001 sp    m     014     129
##  6 Afghanistan  2002 sp    m     014      90
##  7 Afghanistan  2003 sp    m     014     127
##  8 Afghanistan  2004 sp    m     014     139
##  9 Afghanistan  2005 sp    m     014     151
## 10 Afghanistan  2006 sp    m     014     193
## # ... with 76,036 more rows

I claimed that iso2 and iso3 were redundant with country. Confirm this claim.

There are no additional rows when adding the iso variables to the grouping.

who %>% 
        count(country)

## # A tibble: 219 x 2
##    country                 n
##    <chr>               <int>
##  1 Afghanistan            34
##  2 Albania                34
##  3 Algeria                34
##  4 American Samoa         34
##  5 Andorra                34
##  6 Angola                 34
##  7 Anguilla               34
##  8 Antigua and Barbuda    34
##  9 Argentina              34
## 10 Armenia                34
## # ... with 209 more rows

who %>% 
        count(country, iso2, iso3)

## # A tibble: 219 x 4
##    country             iso2  iso3      n
##    <chr>               <chr> <chr> <int>
##  1 Afghanistan         AF    AFG      34
##  2 Albania             AL    ALB      34
##  3 Algeria             DZ    DZA      34
##  4 American Samoa      AS    ASM      34
##  5 Andorra             AD    AND      34
##  6 Angola              AO    AGO      34
##  7 Anguilla            AI    AIA      34
##  8 Antigua and Barbuda AG    ATG      34
##  9 Argentina           AR    ARG      34
## 10 Armenia             AM    ARM      34
## # ... with 209 more rows
…
